chrom	chr_chrom	start	centromere_start	centromere_end	end	size	cumulative_start	cumulative_size	heterochromatin	acrocentric	p_telomere_start	p_telomere_end	short_arm_start	short_arm_end	p_name	p_start	p_end	p_size	q_name	q_start	q_end	q_size	has_ucsc_telomeres	q_telomere_start	q_telomere_end
1	chr1	1	121535434	124535434	249250621	249250621	1	249250621	124535434:142535434	FALSE	1	10000	0	0	1p	1	121535433	121535433	1q	124535435	249250621	124715186	TRUE	249240621	249250621
2	chr2	1	92326171	95326171	243199373	243199373	249250622	492449994	90545103:91545103	FALSE	1	10000	0	0	2p	1	92326170	92326170	2q	95326172	243199373	147873201	TRUE	243189373	243199373
3	chr3	1	90504854	93504854	198022430	198022430	492449995	690472424	None	FALSE	1	10000	0	0	3p	1	90504853	90504853	3q	93504855	198022430	104517575	TRUE	198012430	198022430
4	chr4	1	49660117	52660117	191154276	191154276	690472425	881626700	None	FALSE	1	10000	0	0	4p	1	49660116	49660116	4q	52660118	191154276	138494158	TRUE	191144276	191154276
5	chr5	1	46405641	49405641	180915260	180915260	881626701	1062541960	None	FALSE	1	10000	0	0	5p	1	46405640	46405640	5q	49405642	180915260	131509618	TRUE	180905260	180915260
6	chr6	1	58830166	61830166	171115067	171115067	1062541961	1233657027	None	FALSE	1	10000	0	0	6p	1	58830165	58830165	6q	61830167	171115067	109284900	TRUE	171105067	171115067
7	chr7	1	58054331	61054331	159138663	159138663	1233657028	1392795690	61310513:61360513,61917157:61967157	FALSE	1	10000	0	0	7p	1	58054330	58054330	7q	61054332	159138663	98084331	TRUE	159128663	159138663
8	chr8	1	43838887	46838887	146364022	146364022	1392795691	1539159712	None	FALSE	1	10000	0	0	8p	1	43838886	43838886	8q	46838888	146364022	99525134	TRUE	146354022	146364022
9	chr9	1	47367679	50367679	141213431	141213431	1539159713	1680373143	50367679:65367679	FALSE	1	10000	0	0	9p	1	47367678	47367678	9q	50367680	141213431	90845751	TRUE	141203431	141213431
10	chr10	1	39254935	42254935	135534747	135534747	1680373144	1815907890	None	FALSE	1	10000	0	0	10p	1	39254934	39254934	10q	42254936	135534747	93279811	TRUE	135524747	135534747
11	chr11	1	51644205	54644205	135006516	135006516	1815907891	1950914406	50833853:51040853	FALSE	1	10000	0	0	11p	1	51644204	51644204	11q	54644206	135006516	80362310	TRUE	134996516	135006516
12	chr12	1	34856694	37856694	133851895	133851895	1950914407	2084766301	None	FALSE	1	10000	0	0	12p	1	34856693	34856693	12q	37856695	133851895	95995200	TRUE	133841895	133851895
13	chr13	1	1.6e+07	1.9e+07	115169878	115169878	2084766302	2199936179	19000000:19020000	TRUE	1	10000	10000	1.6e+07	13p	1	15999999	15999999	13q	19000001	115169878	96169877	TRUE	115159878	115169878
14	chr14	1	1.6e+07	1.9e+07	107349540	107349540	2199936180	2307285719	None	TRUE	1	10000	10000	1.6e+07	14p	1	15999999	15999999	14q	19000001	107349540	88349539	TRUE	107339540	107349540
15	chr15	1	1.7e+07	2e+07	102531392	102531392	2307285720	2409817111	None	TRUE	1	10000	10000	1.7e+07	15p	1	16999999	16999999	15q	20000001	102531392	82531391	TRUE	102521392	102531392
16	chr16	1	35335801	38335801	90354753	90354753	2409817112	2500171864	38335801:46335801	FALSE	1	10000	0	0	16p	1	35335800	35335800	16q	38335802	90354753	52018951	TRUE	90344753	90354753
17	chr17	1	22263006	25263006	81195210	81195210	2500171865	2581367074	None	FALSE	1	1	0	0	17p	1	22263005	22263005	17q	25263007	81195210	55932203	FALSE	81195210	81195210
18	chr18	1	15460898	18460898	78077248	78077248	2581367075	2659444322	None	FALSE	1	10000	0	0	18p	1	15460897	15460897	18q	18460899	78077248	59616349	TRUE	78067248	78077248
19	chr19	1	24681782	27681782	59128983	59128983	2659444323	2718573305	24631782:24681782,27681782:27731782	FALSE	1	10000	0	0	19p	1	24681781	24681781	19q	27681783	59128983	31447200	TRUE	59118983	59128983
20	chr20	1	26369569	29369569	63025520	63025520	2718573306	2781598825	None	FALSE	1	10000	0	0	20p	1	26369568	26369568	20q	29369570	63025520	33655950	TRUE	63015520	63025520
21	chr21	1	11288129	14288129	48129895	48129895	2781598826	2829728720	11238129:11288129	TRUE	1	10000	10000	5211193	21p	1	11288128	11288128	21q	14288130	48129895	33841765	TRUE	48119895	48129895
22	chr22	1	1.3e+07	1.6e+07	51304566	51304566	2829728721	2881033286	None	TRUE	1	10000	10000	1.3e+07	22p	1	12999999	12999999	22q	16000001	51304566	35304565	TRUE	51294566	51304566
23	chr23	1	58632012	61632012	155270560	155270560	2881033287	3036303846	None	FALSE	1	10000	0	0	23p	1	58632011	58632011	23q	61632013	155270560	93638547	TRUE	155260560	155270560
24	chr24	1	10104553	13104553	59373566	59373566	3036303847	3095677412	28819361:58819361	FALSE	1	10000	0	0	24p	1	10104552	10104552	24q	13104554	59373566	46269012	TRUE	59363566	59373566
